<?xml version='1.0' encoding='UTF-8'?>
<kml xmlns='http://www.opengis.net/kml/2.2'>
	<Document>
		<name>Мельница – культурная карта локации</name>
		<description><![CDATA[Мы отметили самые интересные места для культурной прогулки по городу вокруг Лофта Мельница]]></description>
		<Folder>
			<name>Локация</name>
			<Placemark>
				<styleUrl>#icon-melnica</styleUrl>
				<name>Лофт Мельница</name>
				<description><![CDATA[Лофт-проект — новое осмысление городского индустриального наследия и новая форма культурных коммуникаций в обществе]]></description>
				<Point>
					<coordinates>82.91188314557076,55.0193073120561,0.0</coordinates>
				</Point>
			</Placemark>
			<Placemark>
				<styleUrl>#icon-gallery</styleUrl>
				<name>Новосибирский государственный художественный музей</name>
				<Point>
					<coordinates>82.92126085147333,55.02160122241581,0.0</coordinates>
				</Point>
			</Placemark>
			<Placemark>
				<styleUrl>#icon-gallery</styleUrl>
				<name>Музей имени Рериха</name>
				<Point>
					<coordinates>82.92000225396725,55.02297720828265,0.0</coordinates>
				</Point>
			</Placemark>
			<Placemark>
				<styleUrl>#icon-theater</styleUrl>
				<name>Театр «Красный Факел»</name>
				<Point>
					<coordinates>82.90824299999997,55.028581,0.0</coordinates>
				</Point>
			</Placemark>
			<Placemark>
				<styleUrl>#icon-cinema</styleUrl>
				<name>Кинотеатр Победа</name>
				<Point>
					<coordinates>82.91502600059152,55.02913228327179,0.0</coordinates>
				</Point>
			</Placemark>
			<Placemark>
				<styleUrl>#icon-park</styleUrl>
				<name>Первомайский сквер</name>
				<Point>
					<coordinates>82.91861234110456,55.02777953738599,0.0</coordinates>
				</Point>
			</Placemark>
			<Placemark>
				<styleUrl>#icon-architecture</styleUrl>
				<name>Собор Александра Невского</name>
				<Point>
					<coordinates>82.92252000000008,55.019538,0.0</coordinates>
				</Point>
			</Placemark>
			<Placemark>
				<styleUrl>#icon-music</styleUrl>
				<name>Филармония зал имени Каца</name>
				<Point>
					<coordinates>82.92471885681152,55.02170607010173,0.0</coordinates>
				</Point>
			</Placemark>
			<Placemark>
				<styleUrl>#icon-music</styleUrl>
				<name>Филармония - Камерный зал</name>
				<Point>
					<coordinates>82.92204800000002,55.027961,0.0</coordinates>
				</Point>
			</Placemark>
			<Placemark>
				<styleUrl>#icon-gallery</styleUrl>
				<name>Краеведческий музей</name>
				<Point>
					<coordinates>82.92028900000003,55.028747,0.0</coordinates>
				</Point>
			</Placemark>
			<Placemark>
				<styleUrl>#icon-music</styleUrl>
				<name>Театр оперы и балета</name>
				<Point>
					<coordinates>82.92452600000001,55.030491,0.0</coordinates>
				</Point>
			</Placemark>
			<Placemark>
				<styleUrl>#icon-park</styleUrl>
				<name>Сквер</name>
				<Point>
					<coordinates>82.92162895202637,55.030162084825434,0.0</coordinates>
				</Point>
			</Placemark>
			<Placemark>
				<styleUrl>#icon-park</styleUrl>
				<name>Сквер</name>
				<Point>
					<coordinates>82.913818359375,55.02796061786001,0.0</coordinates>
				</Point>
			</Placemark>
			<Placemark>
				<styleUrl>#icon-interesting</styleUrl>
				<name>Бар Friends</name>
				<Point>
					<coordinates>82.9231470823288,55.022674758625065,0.0</coordinates>
				</Point>
			</Placemark>
			<Placemark>
				<styleUrl>#icon-cafe</styleUrl>
				<name>Кофемолка</name>
				<Point>
					<coordinates>82.92288422584534,55.023434317061614,0.0</coordinates>
				</Point>
			</Placemark>
			<Placemark>
				<styleUrl>#icon-theater</styleUrl>
				<name>Академический молодежный театр Глобус</name>
				<Point>
					<coordinates>82.92831301689148,55.025353137423686,0.0</coordinates>
				</Point>
			</Placemark>
			<Placemark>
				<styleUrl>#icon-park</styleUrl>
				<name>Сквер у театра Глобус</name>
				<Point>
					<coordinates>82.92669296264648,55.02592507572222,0.0</coordinates>
				</Point>
			</Placemark>
			<Placemark>
				<styleUrl>#icon-architecture</styleUrl>
				<name>Стоквартирный дом</name>
				<Point>
					<coordinates>82.92490124702454,55.0206051194866,0.0</coordinates>
				</Point>
			</Placemark>
			<Placemark>
				<styleUrl>#icon-architecture</styleUrl>
				<name>Дом с часами</name>
				<Point>
					<coordinates>82.92169332504272,55.02333591354155,0.0</coordinates>
				</Point>
			</Placemark>
			<Placemark>
				<styleUrl>#icon-gallery</styleUrl>
				<name>Музей СССР</name>
				<Point>
					<coordinates>82.91064530611038,55.026103420404006,0.0</coordinates>
				</Point>
			</Placemark>
			<Placemark>
				<styleUrl>#icon-park</styleUrl>
				<name>Сквер</name>
				<Point>
					<coordinates>82.92389273643494,55.020229928291165,0.0</coordinates>
				</Point>
			</Placemark>
			<Placemark>
				<styleUrl>#icon-cinema</styleUrl>
				<name>Кинотеатр СИНЕМА</name>
				<Point>
					<coordinates>82.92487978935242,55.01937497130219,0.0</coordinates>
				</Point>
			</Placemark>
			<Placemark>
				<styleUrl>#icon-architecture</styleUrl>
				<name>Дом Речного флота</name>
				<Point>
					<coordinates>82.9198157787323,55.017062190523745,0.0</coordinates>
				</Point>
			</Placemark>
			<Placemark>
				<styleUrl>#icon-park</styleUrl>
				<name>Сквер с фонтаном</name>
				<Point>
					<coordinates>82.91707992553711,55.03090612871817,0.0</coordinates>
				</Point>
			</Placemark>
			<Placemark>
				<styleUrl>#icon-park</styleUrl>
				<name>Сквер героев революции</name>
				<Point>
					<coordinates>82.92321681976318,55.028126654501186,0.0</coordinates>
				</Point>
			</Placemark>
			<Placemark>
				<styleUrl>#icon-gallery</styleUrl>
				<name>Художественная галерея на Советской</name>
				<Point>
					<coordinates>82.9184103012085,55.023834078878934,0.0</coordinates>
				</Point>
			</Placemark>
			<Placemark>
				<styleUrl>#icon-cinema</styleUrl>
				<name>Кинотеатр Пионер</name>
				<Point>
					<coordinates>82.91852831840515,55.02682909058097,0.0</coordinates>
				</Point>
			</Placemark>
			<Placemark>
				<styleUrl>#icon-gallery</styleUrl>
				<name>Городской центр изобразительных искусств</name>
				<Point>
					<coordinates>82.9211676120758,55.022444120624016,0.0</coordinates>
				</Point>
			</Placemark>
			<Placemark>
				<styleUrl>#icon-theater</styleUrl>
				<name>Театральный клуб Пуля</name>
				<Point>
					<coordinates>82.9082179069519,55.029258145146294,0.0</coordinates>
				</Point>
			</Placemark>
			<Placemark>
				<styleUrl>#icon-cafe</styleUrl>
				<name>Перчини - ресторан</name>
				<Point>
					<coordinates>82.91926860809326,55.02957175918158,0.0</coordinates>
				</Point>
			</Placemark>
			<Placemark>
				<styleUrl>#icon-cafe</styleUrl>
				<name>Кондитерская Кузина</name>
				<Point>
					<coordinates>82.91571736335754,55.03113979254472,0.0</coordinates>
				</Point>
			</Placemark>
			<Placemark>
				<styleUrl>#icon-interesting</styleUrl>
				<name>Новосибирская государственная областная научная библиотека</name>
				<Point>
					<coordinates>82.9188072681427,55.02242566952659,0.0</coordinates>
				</Point>
			</Placemark>
			<Placemark>
				<styleUrl>#icon-cafe</styleUrl>
				<name>Кардамон кофейня</name>
				<Point>
					<coordinates>82.91553497314453,55.025660632146945,0.0</coordinates>
				</Point>
			</Placemark>
			<Placemark>
				<styleUrl>#icon-architecture</styleUrl>
				<name>Управление культуры Новосибирского района</name>
				<Point>
					<coordinates>82.91794896125793,55.017855686197834,0.0</coordinates>
				</Point>
			</Placemark>
			<Placemark>
				<styleUrl>#icon-park</styleUrl>
				<name>Парк Городское начало</name>
				<Point>
					<coordinates>82.9246973991394,55.011882553897514,0.0</coordinates>
				</Point>
			</Placemark>
			<Placemark>
				<styleUrl>#icon-park</styleUrl>
				<name>Набережная</name>
				<Point>
					<coordinates>82.92755126953125,55.01056600754653,0.0</coordinates>
				</Point>
			</Placemark>
			<Placemark>
				<styleUrl>#icon-architecture</styleUrl>
				<name>Православный приход</name>
				<Point>
					<coordinates>82.91358232498169,55.02416003556364,0.0</coordinates>
				</Point>
			</Placemark>
			<Placemark>
				<styleUrl>#icon-theater</styleUrl>
				<name>Театр Музкомедии</name>
				<Point>
					<coordinates>82.92643547058105,55.035400843865574,0.0</coordinates>
				</Point>
			</Placemark>
			<Placemark>
				<styleUrl>#icon-park</styleUrl>
				<name>Центральный парк</name>
				<Point>
					<coordinates>82.92441844940186,55.03436790333654,0.0</coordinates>
				</Point>
			</Placemark>
		</Folder>
		<Style id='icon-melnica'>
			<IconStyle>
				<color>ffffffff</color>
				<scale>1.1</scale>
				<Icon>
					<href>http://melnicaloft.ru/css/images/icons/melnica.png</href>
				</Icon>
			</IconStyle>
		</Style>
		<Style id='icon-park'>
			<IconStyle>
				<color>ffffffff</color>
				<scale>1.1</scale>
				<Icon>
					<href>http://melnicaloft.ru/css/images/icons/park.png</href>
				</Icon>
			</IconStyle>
		</Style>
		<Style id='icon-cafe'>
			<IconStyle>
				<color>ffffffff</color>
				<scale>1.1</scale>
				<Icon>
					<href>http://melnicaloft.ru/css/images/icons/cafe.png</href>
				</Icon>
			</IconStyle>
		</Style>
		<Style id='icon-cinema'>
			<IconStyle>
				<color>ffffffff</color>
				<scale>1.1</scale>
				<Icon>
					<href>http://melnicaloft.ru/css/images/icons/cinema.png</href>
				</Icon>
			</IconStyle>
		</Style>
		<Style id='icon-gallery'>
			<IconStyle>
				<color>ffffffff</color>
				<scale>1.1</scale>
				<Icon>
					<href>http://melnicaloft.ru/css/images/icons/gallery.png</href>
				</Icon>
			</IconStyle>
		</Style>
		<Style id='icon-architecture'>
			<IconStyle>
				<color>ffffffff</color>
				<scale>1.1</scale>
				<Icon>
					<href>http://melnicaloft.ru/css/images/icons/museum.png</href>
				</Icon>
			</IconStyle>
		</Style>
		<Style id='icon-music'>
			<IconStyle>
				<color>ffffffff</color>
				<scale>1.1</scale>
				<Icon>
					<href>http://melnicaloft.ru/css/images/icons/music.png</href>
				</Icon>
			</IconStyle>
		</Style>
		<Style id='icon-interesting'>
			<IconStyle>
				<color>ffffffff</color>
				<scale>1.1</scale>
				<Icon>
					<href>http://melnicaloft.ru/css/images/icons/nice.png</href>
				</Icon>
			</IconStyle>
		</Style>
		<Style id='icon-theater'>
			<IconStyle>
				<color>ffffffff</color>
				<scale>1.1</scale>
				<Icon>
					<href>http://melnicaloft.ru/css/images/icons/museum.png</href>
				</Icon>
			</IconStyle>
		</Style>
	</Document>
</kml>
